<?xml version="1.0" standalone="no"?>
<!DOCTYPE svg PUBLIC "-//W3C//DTD SVG 1.1//EN" "http://www.w3.org/Graphics/SVG/1.1/DTD/svg11.dtd" >
<svg xmlns="http://www.w3.org/2000/svg">
<metadata>Generated by IcoMoon</metadata>
<defs>
<font id="icomoon" horiz-adv-x="1024">
<font-face units-per-em="1024" ascent="960" descent="-64" />
<missing-glyph horiz-adv-x="1024" />
<glyph unicode="&#x20;" horiz-adv-x="512" d="" />
<glyph unicode="&#xe901;" glyph-name="menu" d="M1300.589 811.447h-1577.033c-29.111 0-52.663 32.768-52.663 73.143s23.552 73.143 52.59 73.143h1577.033c29.038 0 52.59-32.768 52.59-73.143s-23.552-73.143-52.59-73.143zM-276.517 518.876h1577.033c29.038 0 52.59-32.768 52.59-73.143s-23.552-73.143-52.59-73.143h-1576.96c-29.111 0-52.663 32.768-52.663 73.143s23.552 73.143 52.59 73.143zM-282.588 75.411h930.962c25.6 0 46.519-30.72 46.519-68.535 0-37.888-20.846-68.608-46.519-68.608h-930.962c-25.6 0-46.519 30.72-46.519 68.608s20.846 68.608 46.519 68.608z" />
<glyph unicode="&#xe902;" glyph-name="close" d="M602.57 448.029l402.432 402.432c11.578 11.578 18.74 27.574 18.74 45.242 0 35.336-28.646 63.982-63.982 63.982-17.668 0-33.664-7.161-45.242-18.74l-402.432-402.432-402.432 402.432c-11.587 11.598-27.6 18.773-45.289 18.773-35.355 0-64.015-28.661-64.015-64.015 0-17.666 7.156-33.66 18.727-45.243v0l402.525-402.432-402.618-402.432c-11.571-11.582-18.726-27.577-18.726-45.242 0-35.355 28.661-64.015 64.015-64.015 17.689 0 33.702 7.175 45.288 18.772v0l402.432 402.432 402.432-402.432c11.555-11.631 27.558-18.829 45.242-18.829s33.688 7.199 45.239 18.826l0.003 0.003c11.585 11.575 18.752 27.572 18.752 45.242s-7.166 33.667-18.751 45.242v0l-402.339 402.432z" />
<glyph unicode="&#xe903;" glyph-name="chevron" d="M767.769 57.541c25.836-27.018 26.624-71.68 1.812-99.879-11.393-13.199-28.105-21.538-46.767-21.661h-0.022c-17.717 0.114-33.652 7.652-44.865 19.657l-0.033 0.036-421.652 441.423c-12.346 13.161-19.93 30.917-19.93 50.445 0 0.155 0 0.309 0.001 0.463v-0.024c0 19.22 7.168 37.573 19.929 50.885l421.652 441.423c11.217 12.125 27.212 19.691 44.973 19.691 18.686 0 35.416-8.374 46.642-21.573l0.072-0.087c11.253-13.061 18.106-30.191 18.106-48.921 0-19.689-7.572-37.609-19.963-51.008l0.046 0.050-372.972-390.459 372.972-390.459z" />
<glyph unicode="&#xe904;" glyph-name="watch" d="M512 960c-282.317 0-512-229.683-512-512s229.683-512 512-512 512 229.683 512 512-229.683 512-512 512zM512-12.783c-254.089 0-460.8 206.711-460.8 460.8s206.711 460.8 460.8 460.8c254.106 0 460.8-206.711 460.8-460.8s-206.694-460.8-460.8-460.8zM186.317 467.917c0 9.426-7.641 17.067-17.067 17.067v0h-91.034c-9.426 0-17.067-7.641-17.067-17.067s7.641-17.067 17.067-17.067v0h91.034c9.426 0 17.067 7.641 17.067 17.067v0zM814.217 467.917c0-9.426 7.641-17.067 17.067-17.067v0h91.034c9.426 0 17.067 7.641 17.067 17.067s-7.641 17.067-17.067 17.067v0h-91.034c-9.426 0-17.067-7.641-17.067-17.067v0zM501.333 761.958c9.426 0 17.067 7.641 17.067 17.067v0 91.034c0 9.426-7.641 17.067-17.067 17.067s-17.067-7.641-17.067-17.067v0-91.034c0-9.426 7.641-17.067 17.067-17.067v0zM501.333 134.059c-9.426 0-17.067-7.641-17.067-17.067v0-91.034c0-9.426 7.641-17.067 17.067-17.067s17.067 7.641 17.067 17.067v0 91.034c0 9.426-7.641 17.067-17.067 17.067v0zM189.167 648.55c0-11-8.917-19.917-19.917-19.917s-19.917 8.917-19.917 19.917c0 11 8.917 19.917 19.917 19.917s19.917-8.917 19.917-19.917zM871.117 648.55c0-11-8.917-19.917-19.917-19.917s-19.917 8.917-19.917 19.917c0 11 8.917 19.917 19.917 19.917s19.917-8.917 19.917-19.917zM318.583 804.625c0-11-8.917-19.917-19.917-19.917s-19.917 8.917-19.917 19.917c0 11 8.917 19.917 19.917 19.917s19.917-8.917 19.917-19.917zM723.917 804.625c0-11-8.917-19.917-19.917-19.917s-19.917 8.917-19.917 19.917c0 11 8.917 19.917 19.917 19.917s19.917-8.917 19.917-19.917zM190.942 247.484c0-11-8.917-19.917-19.917-19.917s-19.917 8.917-19.917 19.917c0 11 8.917 19.917 19.917 19.917s19.917-8.917 19.917-19.917zM872.892 247.484c0-11-8.917-19.917-19.917-19.917s-19.917 8.917-19.917 19.917c0 11 8.917 19.917 19.917 19.917s19.917-8.917 19.917-19.917zM320.358 91.375c0-11-8.917-19.917-19.917-19.917s-19.917 8.917-19.917 19.917c0 11 8.917 19.917 19.917 19.917s19.917-8.917 19.917-19.917zM725.692 91.375c0-11-8.917-19.917-19.917-19.917s-19.917 8.917-19.917 19.917c0 11 8.917 19.917 19.917 19.917s19.917-8.917 19.917-19.917zM447.505 754.347c-2.543 6.444-8.715 10.92-15.933 10.92-9.435 0-17.084-7.649-17.084-17.084 0-1.758 0.266-3.455 0.759-5.051l-0.032 0.121 102.724-298.871-226.918-221.321c-3.199-3.1-5.185-7.437-5.185-12.237 0-9.407 7.626-17.033 17.033-17.033 0.029 0 0.058 0 0.087 0h-0.004c0.011 0 0.024 0 0.037 0 4.622 0 8.813 1.843 11.879 4.833l-0.004-0.003 234.667 228.847c4.727 4.625 6.366 11.52 4.233 17.766l-106.257 309.111z" />
<glyph unicode="&#xe905;" glyph-name="user" d="M7.296 957.902c-1.809-1.109-4.096-3.499-5.291-5.291l-2.014-3.328v-1002.598l2.099-3.294c1.109-1.809 3.499-4.198 5.291-5.308l3.328-2.082h1002.598l3.294 2.099c2.116 1.419 3.883 3.18 5.265 5.223l0.043 0.067 2.099 3.311v1002.598l-2.099 3.294c-1.419 2.116-3.18 3.883-5.223 5.265l-0.067 0.043-3.345 2.099h-1002.786l-3.191-2.099zM988.987 840.5v-84.497h-954.010v168.994h954.027v-84.497zM988.987 345.499v-374.494h-954.010v749.005h954.027v-374.511zM59.195 907.299c-2.185-1.206-4.019-2.778-5.483-4.654l-0.029-0.039-2.185-3.106-0.307-58.095-0.205-58.010 2.304-3.396c1.195-1.894 3.806-4.506 5.598-5.7l3.413-2.304h899.396l3.396 2.304c1.792 1.195 4.403 3.806 5.598 5.7l2.304 3.413-0.205 57.975-0.307 58.095-2.185 3.106c-1.556 1.949-3.45 3.554-5.604 4.747l-0.096 0.049c-3.106 1.502-40.209 1.604-452.813 1.604-411.802 0-449.587-0.205-452.608-1.707zM323.985 840.5v-33.502h-237.978v67.004h237.995v-33.502zM937.992 840.5v-33.502h-579.004v67.004h579.004v-33.502zM118.997 840.5v-17.493h34.987v34.987h-34.987zM186.99 840.5v-17.493h35.994v34.987h-35.994zM255.991 840.5v-17.493h35.004v34.987h-35.004zM886.997 840.5v-17.493h34.987v34.987h-34.987zM177.894 650.702c-2.349-1.764-4.24-4.010-5.549-6.6l-0.049-0.107-2.304-4.386v-383.215l2.304-4.386c1.358-2.698 3.248-4.943 5.55-6.672l0.048-0.035 3.396-2.304h285.201l3.908 2.304c2.526 1.511 4.558 3.608 5.948 6.112l0.042 0.083 2.099 4.011v385.007l-2.099 3.994c-1.437 2.588-3.475 4.687-5.933 6.154l-0.074 0.041-3.891 2.304h-285.201l-3.413-2.304zM442.99 448.001v-169.984h-237.995v339.968h237.995v-169.984zM314.99 584.995c-24.798-2.987-47.991-21.999-55.893-45.79-2.714-8.107-4.011-20.702-3.004-30.498 0.802-8.602 4.693-21.111 8.397-27.102l2.389-3.908-4.284-2.697c-7.202-4.608-15.019-13.107-18.398-20.002-5.905-12.1-6.212-14.797-6.212-74.991v-54.511l2.389-5.188c1.911-3.908 3.413-5.7 6.519-7.202 3.994-2.099 5.291-2.099 77.892-2.099h73.899l3.413 2.287c1.792 1.195 4.386 3.806 5.598 5.615l2.287 3.396v58.709c0 63.386 0 63.078-5.598 74.086-2.901 5.803-11.298 15.104-17.289 19.115-2.509 1.69-4.71 3.191-4.898 3.294 1.223 3.17 2.462 5.801 3.86 8.33l-0.174-0.343c2.219 4.198 4.71 10.803 5.513 14.609 2.287 9.694 2.099 24.798-0.41 34.492-5.291 20.702-22.699 39.509-43.503 47.002-5.7 2.099-20.395 4.608-24.491 4.301l-8.004-0.905zM336.699 546.8c16.998-6.315 25.395-27.699 17.391-44.305-3.584-7.595-9.097-13.090-16.094-16.384-7.697-3.618-20.207-3.703-27.511-0.102-7.054 3.795-12.691 9.433-16.382 16.275l-0.104 0.211c-3.601 7.305-3.516 19.797 0.085 27.511 3.311 6.997 8.806 12.493 16.401 16.094 7.714 3.703 17.51 3.994 26.214 0.7zM365.491 445.202c4.301-2.594 6.4-5.001 8.192-9.694 0.802-2.099 1.195-15.701 1.195-46.199l0.119-43.315h-101.001v44.51c0 49.203-0.102 47.991 6.298 52.907 1.792 1.382 5.103 2.987 7.305 3.499 2.099 0.495 19.49 0.887 38.895 0.785 34.799-0.188 34.987-0.188 38.997-2.492zM579.985 618.497v-17.493h69.001v35.004h-69.001zM681.975 618.497v-17.493h172.032v35.004h-172.032zM580.189 550.299l0.307-17.801h67.994l0.307 17.801 0.188 17.698h-69.001zM682.197 550.299l0.29-17.801h171.008l0.29 17.801 0.205 17.698h-172.015zM579.985 481.998v-17.988h69.001v35.994h-69.001zM681.975 481.998v-17.988h172.032v35.994h-172.032zM579.985 414.004v-18.005h274.022v36.011h-274.022zM580.684 363.299c-0.393-0.29-0.683-8.397-0.683-18.005v-17.289h273.988l-0.205 17.801-0.29 17.698-136.107 0.29c-74.803 0.102-136.397-0.085-136.704-0.495zM579.985 277.505v-17.51h274.022v35.004h-274.022zM169.975 192.001v-18.005h684.032v36.011h-684.032zM169.975 123.495v-17.493h684.032v35.004h-684.032zM169.975 55.502v-17.493h684.032v34.987h-684.032z" />
<glyph unicode="&#xe906;" glyph-name="shield" d="M946.126 681.704l-0.034 0.802c-0.413 8.76-0.74 19.848-0.896 30.977l-0.008 0.767c-0.853 56.371-45.636 102.98-101.99 106.121-117.504 6.571-208.418 44.885-286.071 120.576l-0.683 0.631c-11.629 10.796-27.262 17.42-44.442 17.42s-32.812-6.624-44.483-17.458l0.041 0.038-0.649-0.631c-77.67-75.691-168.585-114.005-286.089-120.576-56.337-3.14-101.154-49.749-101.973-106.121-0.171-11.469-0.478-21.845-0.922-31.744l-0.051-1.843c-2.287-119.825-5.12-268.954 44.766-404.309 27.426-74.411 68.966-139.127 123.46-192.307 62.071-60.587 143.36-108.663 241.63-142.916 7.234-2.594 15.579-4.105 24.274-4.13h0.012c8.716 0 17.076 1.52 24.832 4.308l-0.512-0.161c98.133 34.304 179.337 82.432 241.357 142.985 54.477 53.197 96.017 117.931 123.477 192.375 50.074 135.748 47.241 285.15 44.954 405.197zM844.903 297.243c-52.617-142.66-160.034-240.64-328.363-299.503-1.346-0.495-2.901-0.781-4.523-0.781s-3.176 0.286-4.616 0.811l0.094-0.030c-168.55 58.761-276.019 156.689-328.585 299.366-45.978 124.757-43.383 261.632-41.079 382.396l0.017 0.683c0.442 9.198 0.787 20.792 0.947 32.43l0.008 0.765c0.511 25.206 20.323 45.624 45.231 47.098l0.132 0.006c66.509 3.721 124.928 16.555 178.603 39.287 53.589 22.699 101.205 54.682 145.527 97.792 0.977 0.888 2.281 1.431 3.712 1.431s2.735-0.543 3.717-1.435l-0.005 0.004c44.322-43.11 91.938-75.093 145.545-97.792 53.675-22.716 112.077-35.567 178.586-39.27 25.052-1.481 44.871-21.918 45.362-47.090l0.001-0.048c0.171-11.998 0.495-22.869 0.956-33.178 2.304-120.9 4.847-257.911-41.267-382.942zM512.001 702.679c-140.459 0-254.703-114.261-254.703-254.686 0-140.459 114.244-254.72 254.703-254.72 140.425 0 254.686 114.261 254.686 254.72 0 140.425-114.261 254.686-254.686 254.686zM512.001 253.262c-107.383 0-194.731 87.347-194.731 194.731 0 107.366 87.347 194.731 194.731 194.731 107.349 0 194.731-87.364 194.731-194.731 0-107.383-87.381-194.731-194.731-194.731zM585.2 527.063l-118.306-118.306-32.102 32.102c-5.394 5.242-12.765 8.475-20.891 8.475-16.561 0-29.986-13.425-29.986-29.986 0-8.122 3.229-15.49 8.474-20.89l53.309-53.309c5.854-5.854 13.534-8.789 21.197-8.789 7.68 0 15.36 2.935 21.197 8.789l139.52 139.503c5.427 5.427 8.784 12.924 8.784 21.205 0 16.562-13.426 29.989-29.989 29.989-8.281 0-15.778-3.357-21.205-8.784v0z" />
<glyph unicode="&#xe907;" glyph-name="abacus" d="M964 960c-33.084 0-60-26.916-60-60v-108.004h-88.102c-2.096 44.466-38.922 80-83.898 80-25.62 0-48.58-11.542-64-29.682-15.42 18.14-38.38 29.682-64 29.682s-48.58-11.542-64-29.682c-15.42 18.14-38.38 29.682-64 29.682-44.976 0-81.802-35.534-83.898-80h-272.102v108.004c0 33.084-26.916 60-60 60s-60-26.916-60-60v-944c0-11.046 8.956-20 20-20h984c11.044 0 20 8.954 20 20v944c0 33.084-26.916 60-60 60zM944 900c0 11.028 8.972 20 20 20s20-8.972 20-20v-796h-40zM815.898 279.996c-2.096 44.466-38.922 80-83.898 80s-81.802-35.534-83.898-80h-144.204c-2.096 44.466-38.922 80-83.898 80-25.62 0-48.58-11.542-64-29.682-15.42 18.14-38.38 29.682-64 29.682-44.976 0-81.802-35.534-83.898-80h-88.102v216h88.102c2.096-44.466 38.922-80 83.898-80 25.62 0 48.58 11.542 64 29.682 15.42-18.14 38.38-29.682 64-29.682s48.58 11.542 64 29.682c15.42-18.14 38.38-29.682 64-29.682 44.976 0 81.802 35.534 83.898 80h272.102v-216zM776 243.996c0-24.262-19.738-44-44-44s-44 19.738-44 44v32c0 24.262 19.738 44 44 44s44-19.738 44-44zM376 275.996c0 24.262 19.738 44 44 44s44-19.738 44-44v-32c0-24.262-19.738-44-44-44s-44 19.738-44 44zM336 243.996c0-24.262-19.738-44-44-44s-44 19.738-44 44v32c0 24.262 19.738 44 44 44s44-19.738 44-44zM336 499.996c0-24.262-19.738-44-44-44s-44 19.738-44 44v32c0 24.262 19.738 44 44 44s44-19.738 44-44zM376 531.996c0 24.262 19.738 44 44 44s44-19.738 44-44v-32c0-24.262-19.738-44-44-44s-44 19.738-44 44zM504 531.996c0 24.262 19.738 44 44 44s44-19.738 44-44v-32c0-24.262-19.738-44-44-44s-44 19.738-44 44zM732 831.996c24.262 0 44-19.738 44-44v-32c0-24.262-19.738-44-44-44s-44 19.738-44 44v32c0 24.262 19.738 44 44 44zM604 831.996c24.262 0 44-19.738 44-44v-32c0-24.262-19.738-44-44-44s-44 19.738-44 44v32c0 24.262 19.738 44 44 44zM432 787.996c0 24.262 19.738 44 44 44s44-19.738 44-44v-32c0-24.262-19.738-44-44-44s-44 19.738-44 44zM392.102 751.996c2.096-44.466 38.922-80 83.898-80 25.62 0 48.58 11.542 64 29.682 15.42-18.14 38.38-29.682 64-29.682s48.58 11.542 64 29.682c15.42-18.14 38.38-29.682 64-29.682 44.976 0 81.802 35.534 83.898 80h88.102v-216h-272.102c-2.096 44.466-38.922 80-83.898 80-25.62 0-48.58-11.542-64-29.682-15.42 18.14-38.38 29.682-64 29.682s-48.58-11.542-64-29.682c-15.42 18.14-38.38 29.682-64 29.682-44.976 0-81.802-35.534-83.898-80h-88.102v216zM40 900c0 11.028 8.972 20 20 20s20-8.972 20-20v-796h-40zM984-24h-944v88h382c11.044 0 20 8.954 20 20s-8.956 20-20 20h-302v135.996h88.102c2.096-44.466 38.922-80 83.898-80 25.62 0 48.58 11.542 64 29.682 15.42-18.14 38.38-29.682 64-29.682 44.976 0 81.802 35.534 83.898 80h144.204c2.096-44.466 38.922-80 83.898-80s81.802 35.534 83.898 80h88.102v-135.996h-302c-11.044 0-20-8.954-20-20s8.956-20 20-20h382zM512 104c-5.26 0-10.42-2.14-14.14-5.86s-5.86-8.88-5.86-14.14 2.138-10.42 5.86-14.14 8.88-5.86 14.14-5.86 10.42 2.14 14.138 5.86c3.72 3.72 5.862 8.88 5.862 14.14s-2.14 10.42-5.862 14.14c-3.718 3.72-8.878 5.86-14.138 5.86z" />
<glyph unicode="&#xe908;" glyph-name="laboratory" d="M580.718 96l-218.048 337.066v270.934c0 11.782-9.552 21.334-21.334 21.334h-106.666c-11.782 0-21.334-9.552-21.334-21.334v-271.53l-198.804-337.964c-9.51-16.164-14.526-34.576-14.526-53.332-0.002-58.084 47.086-105.172 105.17-105.174h388.48c19.966 0.006 39.504 5.774 56.272 16.612 48.098 31.094 61.884 95.29 30.79 143.388zM493.656-21.334h-388.48c-11.182-0.018-22.166 2.964-31.804 8.636-29.752 17.508-39.678 55.82-22.17 85.572l201.858 342.976c1.928 3.278 2.944 7.012 2.944 10.816v256h64v-256c-0.002-4.11 1.184-8.132 3.414-11.584l221.44-342.25c6.388-9.87 9.788-21.374 9.792-33.132 0.010-33.696-27.296-61.022-60.994-61.034zM307.31 339.776l-36.778 21.61-181.142-307.904c-1.932-3.284-2.95-7.028-2.946-10.838 0.012-11.782 9.574-21.324 21.356-21.31h148.202v42.666h-110.932l162.24 275.776zM972.504 469.334h-332.5c-47.128 0-85.334-38.206-85.334-85.334v-341.334c0.070-58.882 47.786-106.596 106.666-106.666h192c58.882 0.070 106.596 47.786 106.666 106.666v289.836l48.938 48.918c9.634 9.652 15.046 22.73 15.054 36.366 0.018 28.452-23.036 51.532-51.49 51.548zM978.756 411.584l-55.168-55.168c-4-4-6.25-9.426-6.25-15.082v-298.666c0-35.346-28.654-64-64-64h-192c-35.346 0-64 28.654-64 64v341.332c0 23.564 19.102 42.666 42.666 42.666h332.502c2.348 0.002 4.602-0.93 6.262-2.592 3.444-3.452 3.44-9.044-0.012-12.49zM832.004 341.334v-277.334h-64v-42.666h85.334c11.782 0 21.334 9.552 21.334 21.334v298.666h-42.668zM597.336 651.008v287.658c0 11.782-9.55 21.334-21.332 21.334h-149.334c-11.782 0-21.334-9.552-21.334-21.334v-293.718c-26.036-8.016-51.082-18.944-74.666-32.576l21.334-36.928c25.064 14.472 51.976 25.474 80 32.704 9.424 2.434 16.008 10.938 16 20.672v288.514h106.666v-283.542c0.004-10.24 7.284-19.034 17.344-20.95 74.804-14.3 142.066-54.786 189.718-114.198l33.258 26.71c-50.202 62.562-119.702 106.744-197.654 125.654zM906.67 661.334c-41.238 0-74.666-33.43-74.666-74.666 0-41.238 33.43-74.666 74.666-74.666 41.238 0 74.666 33.43 74.666 74.666s-33.428 74.666-74.666 74.666zM906.67 554.666c-17.674 0-32 14.326-32 32s14.326 32 32 32 32-14.326 32-32-14.326-32-32-32zM832.004 810.666c-35.346 0-64-28.654-64-64s28.654-64 64-64 64 28.654 64 64c0 35.346-28.654 64-64 64zM832.004 725.334c-11.782 0-21.334 9.552-21.334 21.334s9.552 21.332 21.334 21.332c11.782 0 21.334-9.552 21.334-21.334s-9.552-21.332-21.334-21.332zM74.67 789.334c-41.238 0-74.666-33.43-74.666-74.666 0-41.238 33.428-74.668 74.666-74.668s74.666 33.43 74.666 74.666c0 41.238-33.428 74.668-74.666 74.668zM74.67 682.666c-17.674 0-32 14.326-32 32s14.326 32 32 32c17.674 0 32-14.326 32-32s-14.326-32-32-32zM170.67 938.666c-35.346 0-64-28.654-64-64s28.654-64 64-64c35.346 0 64 28.654 64 64s-28.654 64-64 64zM170.67 853.334c-11.782 0-21.334 9.552-21.334 21.334 0 11.78 9.552 21.332 21.334 21.332s21.334-9.552 21.334-21.334c0-11.782-9.552-21.332-21.334-21.332zM640.004 341.334h64v-42.666h-64v42.666zM640.004 256h42.666v-42.666h-42.666v42.666zM640.004 170.666h64v-42.666h-64v42.666zM640.004 85.334h42.666v-42.666h-42.666v42.666zM42.67 576h42.666v-42.666h-42.666v42.666zM106.67 469.334h42.666v-42.666h-42.666v42.666zM469.336 384h42.666v-42.666h-42.666v42.666zM426.67 469.334h42.666v-42.666h-42.666v42.666zM405.336 554.666h42.666v-42.666h-42.666v42.666zM426.67 85.334h42.666v-42.666h-42.666v42.666zM362.67 170.666h42.666v-42.666h-42.666v42.666z" />
<glyph unicode="&#xe90a;" glyph-name="arrow-back" horiz-adv-x="1497" d="M488.842-48.561c20.322-20.559 54.351-20.559 75.382 0 9.428 9.231 15.272 22.089 15.272 36.313s-5.845 27.082-15.263 36.304l-0.009 0.009-382.425 372.106h1262.041c29.381 0.079 52.775 22.843 52.775 51.436-0.133 28.828-23.534 52.147-52.381 52.147-0.139 0-0.277-0.001-0.416-0.002h-1262.020l382.425 371.476c9.428 9.364 15.264 22.334 15.264 36.667s-5.836 27.304-15.261 36.664l-0.003 0.003c-9.708 9.51-23.014 15.378-37.691 15.378s-27.983-5.869-37.7-15.387l0.009 0.009-473.088-460.249c-9.734-9.085-15.802-21.99-15.802-36.313s6.068-27.228 15.773-36.286l0.029-0.027 473.009-460.249z" />
<glyph unicode="&#xe90b;" glyph-name="Caution_1" d="M512 960c-282.77 0-512-229.23-512-512s229.23-512 512-512c282.77 0 512 229.23 512 512v0c0 282.77-229.23 512-512 512v0zM512 192.222c-24.525 0-44.406 19.881-44.406 44.406s19.881 44.406 44.406 44.406c24.525 0 44.406-19.881 44.406-44.406v0c0-24.525-19.881-44.406-44.406-44.406v0zM556.406 403.594c0-24.525-19.881-44.406-44.406-44.406s-44.406 19.881-44.406 44.406v0 300.184c-1.127 3.724-1.776 8.003-1.776 12.434 0 24.525 19.881 44.406 44.406 44.406s44.406-19.881 44.406-44.406c0-4.431-0.649-8.71-1.857-12.748l0.081 0.314z" />
<glyph unicode="&#xe90c;" glyph-name="clock" d="M512 960c-282.317 0-512-229.683-512-512s229.683-512 512-512 512 229.683 512 512-229.683 512-512 512zM512-29.867c-263.492 0-477.867 214.374-477.867 477.867s214.374 477.867 477.867 477.867 477.867-214.374 477.867-477.867-214.374-477.867-477.867-477.867zM529.067 515.908v173.090c0 9.438-7.646 17.067-17.067 17.067s-17.067-7.629-17.067-17.067v-173.090c-23.876-6.212-42.564-24.9-48.777-48.777h-121.89c-9.421 0-17.067-7.629-17.067-17.067s7.646-17.067 17.067-17.067h121.89c7.629-29.355 34.133-51.2 65.843-51.2 37.649 0 68.267 30.618 68.267 68.267 0 31.727-21.845 58.214-51.2 65.843zM512 415.932c-18.825 0-34.133 15.309-34.133 34.133s15.309 34.133 34.133 34.133 34.133-15.309 34.133-34.133-15.309-34.133-34.133-34.133zM512 791.398c9.421 0 17.067 7.629 17.067 17.067v17.067c0 9.438-7.646 17.067-17.067 17.067s-17.067-7.629-17.067-17.067v-17.067c0-9.438 7.646-17.067 17.067-17.067zM512 108.732c-9.421 0-17.067-7.629-17.067-17.067v-17.067c0-9.438 7.646-17.067 17.067-17.067s17.067 7.629 17.067 17.067v17.067c0 9.438-7.646 17.067-17.067 17.067zM887.467 467.132h-17.067c-9.421 0-17.067-7.629-17.067-17.067s7.646-17.067 17.067-17.067h17.067c9.421 0 17.067 7.629 17.067 17.067s-7.646 17.067-17.067 17.067zM153.6 467.132h-17.067c-9.421 0-17.067-7.629-17.067-17.067s7.646-17.067 17.067-17.067h17.067c9.421 0 17.067 7.629 17.067 17.067s-7.646 17.067-17.067 17.067zM765.423 727.637l-12.066-12.066c-6.673-6.673-6.673-17.459 0-24.132 3.328-3.328 7.697-5.001 12.066-5.001s8.738 1.673 12.066 5.001l12.066 12.066c6.673 6.673 6.673 17.459 0 24.132s-17.459 6.656-24.132 0zM246.511 208.708l-12.066-12.066c-6.673-6.673-6.673-17.459 0-24.132 3.328-3.328 7.697-5.001 12.066-5.001s8.738 1.673 12.066 5.001l12.066 12.066c6.673 6.673 6.673 17.459 0 24.132s-17.476 6.656-24.132 0zM777.489 208.708c-6.673 6.673-17.459 6.673-24.132 0s-6.673-17.459 0-24.132l12.066-12.066c3.328-3.328 7.697-5.001 12.066-5.001s8.738 1.673 12.066 5.001c6.673 6.673 6.673 17.459 0 24.132l-12.066 12.066zM258.577 727.637c-6.673 6.673-17.459 6.673-24.132 0s-6.673-17.459 0-24.132l12.066-12.066c3.328-3.328 7.697-5.001 12.066-5.001s8.738 1.673 12.066 5.001c6.673 6.673 6.673 17.459 0 24.132l-12.066 12.066z" />
<glyph unicode="&#xe90d;" glyph-name="badge-green_1" horiz-adv-x="995" d="M984.246 388.369l-18.734 26.502c-7.277 10.244-11.633 23.005-11.633 36.784s4.356 26.54 11.767 36.982l-0.134-0.198 18.734 26.502c7.088 10.057 11.329 22.564 11.329 36.061 0 23.732-13.11 44.402-32.483 55.162l-0.322 0.164-28.33 15.536c-19.74 10.794-32.905 31.414-32.905 55.109 0 3.777 0.335 7.476 0.976 11.069l-0.056-0.379 5.483 31.986c0.613 3.301 0.963 7.1 0.963 10.98 0 34.361-27.484 62.303-61.667 63.043l-0.069 0.001h-31.986c-27.399 1.375-50.089 20.042-57.463 45.248l-0.112 0.446-8.682 31.529c-7.306 26.785-31.417 46.151-60.050 46.151-8.848 0-17.264-1.849-24.883-5.182l0.4 0.156-29.701-12.794c-7.368-3.357-15.979-5.314-25.048-5.314-18.377 0-34.877 8.036-46.178 20.786l-0.056 0.064-21.476 24.218c-11.392 12.331-27.644 20.026-45.694 20.026s-34.302-7.695-45.656-19.984l-0.038-0.042-21.019-24.675c-11.539-13.217-28.418-21.521-47.237-21.521-8.504 0-16.611 1.696-24.003 4.767l0.415-0.153-30.158 12.337c-7.077 3.039-15.314 4.806-23.964 4.806-28.72 0-52.89-19.483-60.014-45.953l-0.1-0.435-8.682-31.529c-7.008-25.614-29.473-44.359-56.517-45.688l-0.144-0.006-31.986-2.285c-0.093 0.001-0.204 0.001-0.314 0.001-34.573 0-62.601-28.027-62.601-62.601 0-4.367 0.447-8.629 1.298-12.743l-0.070 0.405 5.94-31.986c0.685-3.476 1.077-7.473 1.077-11.561 0-23.392-12.83-43.787-31.837-54.533l-0.312-0.162-28.33-15.993c-19.145-11.066-31.821-31.442-31.821-54.777 0-13.734 4.39-26.442 11.844-36.798l-0.128 0.187 19.191-26.502c7.402-10.203 11.84-22.975 11.84-36.784s-4.438-26.58-11.967-36.967l0.126 0.183-18.734-26.502c-7.217-10.069-11.541-22.639-11.541-36.218 0-23.74 13.215-44.393 32.689-55.006l0.328-0.164 28.33-15.536c19.74-10.794 32.905-31.414 32.905-55.109 0-3.777-0.335-7.476-0.976-11.069l0.056 0.379-5.026-31.986c-0.625-3.309-0.982-7.116-0.982-11.006 0-33.542 26.573-60.877 59.816-62.101l0.112-0.003h31.986c27.346-1.518 49.968-20.12 57.459-45.244l0.115-0.45 9.139-31.072c7.357-26.433 31.215-45.507 59.527-45.507 9.053 0 17.65 1.95 25.395 5.453l-0.388-0.157 29.701 12.794c7.279 3.267 15.777 5.169 24.719 5.169 18.309 0 34.755-7.977 46.053-20.644l0.053-0.061 21.476-24.218c11.392-12.331 27.644-20.026 45.694-20.026s34.302 7.695 45.656 19.984l0.038 0.042 21.019 24.675c11.694 13.201 28.688 21.481 47.616 21.481 8.527 0 16.661-1.68 24.090-4.728l-0.423 0.154 29.701-12.337c8.371-4.48 18.312-7.111 28.867-7.111 28.894 0 53.181 19.719 60.141 46.433l0.096 0.432 8.682 31.529c7.26 25.456 29.582 44.067 56.487 45.686l0.174 0.008h31.986c33.079 2.145 59.098 29.501 59.098 62.933 0 4.083-0.388 8.076-1.129 11.943l0.063-0.395-5.94 31.986c-0.685 3.476-1.077 7.473-1.077 11.561 0 23.392 12.83 43.787 31.837 54.533l0.312 0.162 28.33 15.993c19.876 10.635 33.168 31.252 33.168 54.975 0 14.687-5.095 28.185-13.614 38.821l0.095-0.123zM729.731 588.509l-311.175-307.063c-7.892-7.408-18.456-12.051-30.102-12.336l-0.056-0.001c-11.982 0.43-22.724 5.41-30.617 13.254l0.002-0.002-132.512 140.28c-7.183 7.618-11.598 17.916-11.598 29.244 0 23.566 19.104 42.669 42.669 42.669 12.237 0 23.271-5.151 31.052-13.404l0.020-0.021 102.811-108.295 279.19 276.448c7.424 6.293 17.112 10.12 27.693 10.12 23.722 0 42.952-19.23 42.952-42.952 0-10.696-3.909-20.478-10.377-27.997l0.048 0.057z" />
<glyph unicode="&#xe90e;" glyph-name="Minus-grey_1" d="M972.8 400h-921.6c-26.512 0-48 21.49-48 48s21.488 48 48 48v0h921.6c26.51 0 48-21.488 48-48s-21.49-48-48-48v0z" />
<glyph unicode="&#xe90f;" glyph-name="plus-grey_1" horiz-adv-x="905" d="M861.867 490.667h-366.933v426.667c0.056 0.792 0.087 1.716 0.087 2.647 0 22.15-17.956 40.107-40.107 40.107-0.932 0-1.856-0.032-2.771-0.094l0.124 0.007c-24.162-2.605-42.808-22.888-42.808-47.527 0-1.293 0.051-2.574 0.152-3.841l-0.011 0.167v-426.667h-366.933c-25.6 8.533-42.667-8.533-42.667-34.133-0.056-0.792-0.087-1.716-0.087-2.647 0-22.15 17.956-40.107 40.107-40.107 0.932 0 1.856 0.032 2.771 0.094l-0.124-0.007h366.933v-426.667c1.688-22.853 19.814-40.979 42.515-42.658l0.152-0.009c0.792-0.056 1.716-0.087 2.647-0.087 22.15 0 40.107 17.956 40.107 40.107 0 0.932-0.032 1.856-0.094 2.771l0.007-0.124v426.667h366.933c23.564 0 42.667 19.103 42.667 42.667s-19.103 42.667-42.667 42.667v0z" />
</font></defs></svg>