<svg xmlns="http://www.w3.org/2000/svg" width="11" height="11" viewBox="0 0 11 11">
    <path fill="#000" fill-rule="nonzero" d="M6.469 5.497l4.323-4.323A.687.687 0 1 0 9.82.202L5.497 4.525 1.174.202a.687.687 0 1 0-.973.972l4.324 4.323L.2 9.82a.687.687 0 1 0 .973.972l4.323-4.323 4.323 4.323a.685.685 0 0 0 .972 0 .687.687 0 0 0 0-.972L6.469 5.497z"/>
</svg>
