<?xml version="1.0" encoding="utf-8"?>
<!-- Generator: Adobe Illustrator 24.0.0, SVG Export Plug-In . SVG Version: 6.00 Build 0)  -->
<svg version="1.1" id="Capa_1" xmlns="http://www.w3.org/2000/svg" xmlns:xlink="http://www.w3.org/1999/xlink" x="0px" y="0px"
	 viewBox="0 0 512 512" style="enable-background:new 0 0 512 512;" xml:space="preserve">
<style type="text/css">
	.st0{fill:#FFC66C;}
	.st1{fill:#FF5D5D;}
	.st2{fill:#72D8FF;}
	.st3{fill:#FEDA9B;}
	.st4{fill:#FFCDAA;}
	.st5{fill:#9EE74C;}
	.st6{fill:#6DD8FF;}
</style>
<path class="st0" d="M218,258h264c11,0,20-9,20-20V30c0-11-9-20-20-20H218c-11,0-20,9-20,20v208C198,249,207,258,218,258z"/>
<g>
	<rect x="48.1" y="247" class="st1" width="80" height="71.5"/>
	<path class="st1" d="M40.2,351H30c-11,0-20-9-20-20v-74.7c0-36.1,29.2-65.3,65.3-65.3h32c22.6,0,43.6,11.7,55.5,30.9l4.7,7.6
		l42.5-25l19.9,23.6l-50.6,50.6c-8.6,8.6-22.7,8.7-31.3,0.1L128.1,259"/>
</g>
<polygon class="st2" points="48.1,308.5 48.1,351 48.1,502 48.1,502 88,502 88,351 88.1,351 88.1,502 88.1,502 128.1,502 128.1,351 
	128.1,308.5 "/>
<path class="st3" d="M88,191L88,191c-17.7,0-32-14.3-32-32v-8c0-17.7,14.3-32,32-32l0,0c17.7,0,32,14.3,32,32v8
	C120,176.7,105.7,191,88,191z"/>
<path d="M121,381.4c-1.9,1.9-2.9,4.4-2.9,7.1s1.1,5.2,2.9,7.1c1.9,1.9,4.4,2.9,7.1,2.9c2.6,0,5.2-1.1,7.1-2.9
	c1.9-1.9,2.9-4.4,2.9-7.1s-1.1-5.2-2.9-7.1c-1.9-1.9-4.4-2.9-7.1-2.9C125.4,378.5,122.8,379.6,121,381.4z"/>
<path d="M482,0H218c-16.5,0-30,13.5-30,30v175.8l-17.1,10.1c-11.1-17.4-28.4-29.3-48.1-33.3c4.6-6.7,7.3-14.8,7.3-23.6v-8
	c0-23.2-18.8-42-42-42s-42,18.8-42,42v8c0,9.4,3.1,18,8.3,25C23,193.1,0,222.1,0,256.3V331c0,16.5,13.5,30,30,30h8.1v141
	c0,5.5,4.5,10,10,10h80c5.5,0,10-4.5,10-10v-72.5c0-5.5-4.5-10-10-10s-10,4.5-10,10V492h-20V375.5c0-0.5,0-1-0.1-1.4v-8.9
	c0-5.5-4.5-10-10-10s-10,4.5-10,10V492H58.1V328.5h60V351c0,5.5,4.5,10,10,10c5.5,0,10-4.5,10-10v-68l2.9,2.8
	c12.6,12.5,32.9,12.4,45.5-0.1l50.6-50.6c3.7-3.7,3.9-9.6,0.6-13.5l-3.9-4.6l45.7-45.7c3.9-3.9,3.9-10.2,0-14.1
	c-3.9-3.9-10.2-3.9-14.1,0l-44.5,44.5l-3.1-3.6c-2.4-2.9-6.1-4-9.6-3.3V30c0-5.5,4.5-10,10-10h264c5.5,0,10,4.5,10,10v208
	c0,5.5-4.5,10-10,10H296.5c-5.5,0-10,4.5-10,10s4.5,10,10,10H482c16.5,0,30-13.5,30-30V30C512,13.5,498.5,0,482,0z M66,151
	c0-12.1,9.9-22,22-22s22,9.9,22,22v8c0,12.1-9.9,22-22,22s-22-9.9-22-22V151z M216.4,227.5l-44.1,44.1c-4.7,4.7-12.5,4.8-17.2,0
	l-16.9-16.8v-9.3c0-5.5-4.5-10-10-10s-10,4.5-10,10v63h-60v-63c0-5.5-4.5-10-10-10s-10,4.5-10,10V341H30c-5.5,0-10-4.5-10-10v-74.7
	c0-30.5,24.8-55.3,55.3-55.3h32c19.3,0,36.9,9.8,47,26.2l4.7,7.6c2.9,4.6,8.9,6.1,13.6,3.4l35.2-20.7L216.4,227.5z"/>
<path d="M255,248c-2.6,0-5.2,1.1-7.1,2.9c-1.9,1.9-2.9,4.4-2.9,7.1s1.1,5.2,2.9,7.1c1.9,1.9,4.4,2.9,7.1,2.9c2.6,0,5.2-1.1,7.1-2.9
	c1.9-1.9,2.9-4.4,2.9-7.1s-1.1-5.2-2.9-7.1C260.2,249.1,257.6,248,255,248z"/>
<path d="M284.3,149.2c5.5,0,10-4.5,10-10v-64c0-4.1-2.5-7.7-6.2-9.3c-3.8-1.5-8.1-0.6-10.9,2.3L255.8,90c-3.9,4-3.8,10.3,0.2,14.1
	c4,3.9,10.3,3.8,14.1-0.2l4.1-4.2v39.4C274.3,144.7,278.7,149.2,284.3,149.2z"/>
<path d="M437,149.2c5.5,0,10-4.5,10-10v-64c0-4.1-2.5-7.7-6.2-9.3c-3.8-1.5-8.1-0.6-10.9,2.3L408.6,90c-3.9,4-3.8,10.3,0.2,14.1
	c4,3.9,10.3,3.8,14.1-0.2l4.1-4.2v39.4C427,144.7,431.5,149.2,437,149.2z"/>
<path d="M350,73.7c-5.5,0-10,4.5-10,10v13.5h-13.5c-5.5,0-10,4.5-10,10s4.5,10,10,10H340v13.5c0,5.5,4.5,10,10,10s10-4.5,10-10
	v-13.5h13.5c5.5,0,10-4.5,10-10s-4.5-10-10-10H360V83.7C360,78.1,355.5,73.7,350,73.7z"/>
<g>
	<path class="st4" d="M371.5,290.7h-0.4c-15.3,0-27.7,12.4-27.7,27.7v9.1c0,15.3,12.4,27.7,27.7,27.7h0.4
		c15.3,0,27.7-12.4,27.7-27.7v-9.1C399.2,303.1,386.8,290.7,371.5,290.7z"/>
	<path d="M371.5,361.7h-0.4c-18.9,0-34.2-15.3-34.2-34.2v-9.1c0-18.9,15.3-34.2,34.2-34.2h0.4c18.9,0,34.2,15.3,34.2,34.2v9.1
		C405.7,346.3,390.4,361.7,371.5,361.7z M371.1,297.2c-11.7,0-21.2,9.5-21.2,21.2v9.1c0,11.7,9.5,21.2,21.2,21.2h0.4
		c11.7,0,21.2-9.5,21.2-21.2v-9.1c0-11.7-9.5-21.2-21.2-21.2H371.1z"/>
</g>
<g>
	<path class="st5" d="M371.6,355.2h-0.7c-24.7,0-44.7,20-44.7,44.7v25h90.1v-25C416.4,375.2,396.3,355.2,371.6,355.2z"/>
	<path d="M422.8,431.4H319.7v-31.5c0-28.2,23-51.2,51.2-51.2h0.7c13.7,0,26.7,5.4,36.3,15.1c9.6,9.7,14.9,22.5,14.9,36.1V431.4z
		 M332.7,418.4h77.1v-18.5c0-10.2-3.9-19.7-11.1-26.9c-7.2-7.3-16.9-11.3-27.1-11.3h-0.7c-21.1,0-38.2,17.1-38.2,38.2V418.4z"/>
</g>
<g>
	<path class="st4" d="M281.4,290.7H281c-15.3,0-27.7,12.4-27.7,27.7v9.1c0,15.3,12.4,27.7,27.7,27.7h0.4c15.3,0,27.7-12.4,27.7-27.7
		v-9.1C309.1,303.1,296.7,290.7,281.4,290.7z"/>
	<path d="M281.4,361.7H281c-18.9,0-34.2-15.3-34.2-34.2v-9.1c0-18.9,15.3-34.2,34.2-34.2h0.4c18.9,0,34.2,15.3,34.2,34.2v9.1
		C315.6,346.3,300.3,361.7,281.4,361.7z M281,297.2c-11.7,0-21.2,9.5-21.2,21.2v9.1c0,11.7,9.5,21.2,21.2,21.2h0.4
		c11.7,0,21.2-9.5,21.2-21.2v-9.1c0-11.7-9.5-21.2-21.2-21.2H281z"/>
</g>
<g id="XMLID_1_">
	<g>
		<g>
			<path class="st6" d="M326.2,399.9v25h-90.1v-25c0-24.7,20-44.7,44.7-44.7h0.7C306.2,355.2,326.2,375.2,326.2,399.9z"/>
		</g>
	</g>
	<g>
		<g>
			<path d="M332.7,431.4H229.6v-31.5c0-28.2,23-51.2,51.2-51.2h0.7c28.2,0,51.2,23,51.2,51.2V431.4z M242.6,418.4h77.1v-18.5
				c0-21.1-17.1-38.2-38.2-38.2h-0.7c-21.1,0-38.2,17.1-38.2,38.2V418.4z"/>
		</g>
	</g>
</g>
<g>
	<rect x="416.3" y="420.9" width="55.4" height="10"/>
</g>
<g>
	<rect x="210.8" y="420.9" width="59.2" height="10"/>
</g>
</svg>
