<?xml version="1.0" encoding="iso-8859-1"?>
<!-- Generator: Adobe Illustrator 19.0.0, SVG Export Plug-In . SVG Version: 6.00 Build 0)  -->
<svg version="1.1" id="Capa_1" xmlns="http://www.w3.org/2000/svg" xmlns:xlink="http://www.w3.org/1999/xlink" x="0px" y="0px"
	 viewBox="0 0 512 512" style="enable-background:new 0 0 512 512;" xml:space="preserve">
<path style="fill:#28B898;" d="M256,134.27c-11.25,0-21.532-4.121-29.442-10.923c5.809,8.521,11.617,21.209,15.156,39.903
	c9.504-0.867,19.068-0.867,28.572,0c3.539-18.694,9.346-31.383,15.155-39.903C277.532,130.15,267.25,134.27,256,134.27z"/>
<path style="fill:#FFC766;" d="M241.714,163.251c-23.663,2.159-46.945,9.673-67.947,22.582l-6.694,4.115
	c-10.881,6.688-17.417,18.629-17.186,31.398l3.575,198.359c0.251,13.918,11.605,25.07,25.526,25.07h45.13V391.69
	c0-0.277,0.014-0.551,0.021-0.826h-9.63c-6.963,0-12.485-5.869-12.061-12.819l0.313-5.125c1.524-24.971,22.219-44.443,47.237-44.443
	h12.083c25.296,0,46.119,19.892,47.275,45.161l0.21,4.589c0.315,6.883-5.181,12.636-12.071,12.636h-9.63
	c0.007,0.276,0.021,0.549,0.021,0.826v53.085h45.13c13.92,0,25.275-11.152,25.526-25.07l3.575-198.359
	c0.23-12.77-6.306-24.71-17.186-31.398l-6.694-4.115c-21.002-12.909-44.284-20.423-67.947-22.582
	C260.782,162.384,251.218,162.384,241.714,163.251z"/>
<path style="fill:#BDC2C6;" d="M287.863,390.863h-63.726c-0.007,0.276-0.021,0.549-0.021,0.826v53.085v25.342
	C224.116,487.725,238.391,502,256,502l0,0c17.609,0,31.884-14.275,31.884-31.884v-25.342V391.69
	C287.884,391.413,287.87,391.139,287.863,390.863z"/>
<path style="fill:#28B898;" d="M297.493,390.863c6.89,0,12.386-5.753,12.071-12.636l-0.21-4.589
	c-1.156-25.269-21.98-45.161-47.275-45.161h-12.083c-25.017,0-45.713,19.472-47.237,44.443l-0.313,5.125
	c-0.424,6.95,5.098,12.819,12.061,12.819h9.63h63.726h9.63V390.863z"/>
<g>
	<path style="fill:#5DADE0;" d="M215.793,68.462c-19.84,6.956-40.762,10.488-61.868,10.372l-26.38-0.073
		c-4.516-0.013-8.183,3.645-8.183,8.16v17.933c0,4.507,3.654,8.16,8.16,8.16h90.153c-4.344-6.942-6.864-15.142-6.864-23.934
		C210.811,81.651,212.615,74.646,215.793,68.462z"/>
	<path style="fill:#5DADE0;" d="M294.325,113.016h90.153c4.507,0,8.16-3.654,8.16-8.16V86.922c0-4.516-3.667-8.173-8.183-8.16
		l-26.38,0.073c-21.106,0.116-42.028-3.416-61.868-10.372c3.178,6.184,4.982,13.188,4.982,20.619
		C301.189,97.874,298.669,106.074,294.325,113.016z"/>
</g>
<path style="fill:#EC6575;" d="M285.442,123.347c3.455-2.971,6.455-6.452,8.884-10.332c4.344-6.942,6.864-15.142,6.864-23.934
	c0-7.431-1.805-14.435-4.982-20.619c-7.495-14.586-22.68-24.571-40.207-24.571s-32.712,9.985-40.207,24.571
	c-3.178,6.184-4.982,13.188-4.982,20.619c0,8.793,2.52,16.993,6.864,23.934c2.428,3.88,5.429,7.361,8.884,10.332
	c7.91,6.802,18.191,10.923,29.442,10.923C267.25,134.27,277.532,130.15,285.442,123.347z"/>
<g>
	<path style="fill:#ECEFF0;" d="M127.469,35.684V21.209c0-6.191-5.018-11.209-11.209-11.209H94.724
		c-6.191,0-11.209,5.018-11.209,11.209v14.475c0,6.191,5.019,11.209,11.209,11.209h21.536
		C122.451,46.893,127.469,41.874,127.469,35.684z"/>
	<path style="fill:#ECEFF0;" d="M417.276,46.893c6.191,0,11.209-5.019,11.209-11.209V21.209c0-6.191-5.019-11.209-11.209-11.209
		H395.74c-6.191,0-11.209,5.018-11.209,11.209v14.475c0,6.191,5.018,11.209,11.209,11.209
		C395.74,46.893,417.276,46.893,417.276,46.893z"/>
</g>
<path d="M375.35,41.455c2.522,8.895,10.698,15.438,20.39,15.438h21.535c11.694,0,21.209-9.514,21.209-21.209V21.209
	C438.484,9.514,428.97,0,417.275,0H395.74c-11.382,0-20.672,9.019-21.162,20.283c-24.887,7.704-40.384,33.264-46.763,46.045
	c-8.406-1.439-16.709-3.483-24.808-6.124C293.282,44.431,275.851,33.892,256,33.892c-19.849,0-37.278,10.537-47.004,26.306
	c-8.101,2.639-16.409,4.682-24.816,6.122c-6.381-12.784-21.877-38.335-46.759-46.037C136.932,9.019,127.641,0,116.26,0H94.725
	C83.03,0,73.516,9.514,73.516,21.209v14.475c0,11.695,9.515,21.209,21.209,21.209h21.535c9.692,0,17.868-6.542,20.39-15.437
	c11.758,5.812,20.62,17.903,26.048,27.198c-2.916,0.133-5.833,0.199-8.746,0.182l-26.379-0.073c-0.018,0-0.035,0-0.053,0
	c-4.841,0-9.393,1.882-12.822,5.301c-3.441,3.432-5.337,7.999-5.337,12.859v17.933c0,10.014,8.146,18.161,18.16,18.161h85.002
	c1.954,2.498,4.107,4.832,6.454,6.959c3.847,5.857,7.636,13.854,10.58,24.733c-21.543,3.452-42.282,11.083-61.029,22.606
	l-6.692,4.114c-13.831,8.501-22.241,23.866-21.948,40.098l3.574,198.359c0.347,19.238,16.282,34.89,35.523,34.89h35.13v15.342
	C214.116,493.211,232.905,512,256,512s41.884-18.789,41.884-41.884v-15.342h35.13c19.241,0,35.177-15.651,35.523-34.89
	l3.574-198.358c0.293-16.232-8.117-31.597-21.947-40.098l-6.694-4.115c-18.746-11.522-39.485-19.153-61.028-22.605
	c2.944-10.879,6.734-18.877,10.581-24.734c2.347-2.127,4.5-4.461,6.453-6.958h85.002c10.014,0,18.16-8.147,18.16-18.161V86.922
	c0-4.86-1.896-9.427-5.337-12.859c-3.43-3.42-7.981-5.301-12.821-5.301c-0.018,0-0.035,0-0.053,0l-26.407,0.073
	c-2.906,0.018-5.814-0.047-8.721-0.178C354.728,59.361,363.591,47.268,375.35,41.455z M394.531,21.209
	c0-0.667,0.542-1.209,1.209-1.209h21.535c0.667,0,1.209,0.542,1.209,1.209v14.475c0,0.667-0.542,1.209-1.209,1.209H395.74
	c-0.667,0-1.209-0.542-1.209-1.209L394.531,21.209L394.531,21.209z M117.469,35.684c0,0.667-0.542,1.209-1.209,1.209H94.725
	c-0.667,0-1.209-0.542-1.209-1.209V21.209c0-0.667,0.542-1.209,1.209-1.209h21.535c0.667,0,1.209,0.542,1.209,1.209
	C117.469,21.209,117.469,35.684,117.469,35.684z M129.361,103.016V88.767l24.509,0.068c0.346,0.002,0.691,0.002,1.038,0.002
	c15.509,0,31.088-1.908,46.216-5.612c-0.204,1.925-0.314,3.878-0.314,5.856c0,4.812,0.623,9.481,1.786,13.935H129.361z
	 M223.182,76.405c4.366-11.263,14.365-19.733,26.525-21.938c2.043-0.371,4.144-0.575,6.293-0.575
	c14.935,0,27.719,9.357,32.818,22.514c1.525,3.936,2.371,8.207,2.371,12.675c0,2.734-0.324,5.392-0.917,7.948
	c-0.48,2.071-1.138,4.073-1.967,5.986c-4.205,9.711-12.663,17.162-23.013,20c-2.963,0.813-6.077,1.255-9.294,1.255
	s-6.331-0.442-9.294-1.255c-10.35-2.838-18.808-10.289-23.013-20c-0.828-1.914-1.487-3.916-1.967-5.986
	c-0.593-2.556-0.917-5.214-0.917-7.948C220.811,84.613,221.656,80.341,223.182,76.405z M214.507,380.863
	c-0.744,0-1.235-0.356-1.517-0.655s-0.607-0.812-0.563-1.555l0.313-5.124c1.199-19.655,17.563-35.052,37.256-35.052h12.083
	c19.993,0,36.371,15.646,37.285,35.619l0.21,4.59c0.033,0.735-0.294,1.24-0.575,1.533c-0.28,0.294-0.77,0.645-1.506,0.645h-1.036
	h-21.451h-38.012h-21.451L214.507,380.863L214.507,380.863z M277.884,454.774v15.342c0,12.067-9.817,21.884-21.884,21.884
	s-21.884-9.817-21.884-21.884v-15.342v-53.911h43.768v33.911V454.774z M332.996,194.352l6.694,4.115
	c7.829,4.813,12.59,13.51,12.425,22.699l-3.574,198.359c-0.152,8.409-7.117,15.25-15.527,15.25h-35.13v-33.921
	c5.863-0.106,11.522-2.574,15.578-6.82c4.146-4.34,6.366-10.268,6.091-16.263l-0.21-4.589
	c-1.403-30.675-26.557-54.705-57.264-54.705h-12.083c-30.243,0-55.377,23.646-57.219,53.834l-0.313,5.124
	c-0.369,6.055,1.803,12.061,5.959,16.478c4.067,4.323,9.767,6.834,15.692,6.94v33.921h-35.13c-8.41,0-15.375-6.841-15.527-15.25
	l-3.574-198.359c-0.165-9.188,4.596-17.886,12.426-22.699l6.692-4.114c17.001-10.45,35.474-17.137,54.366-20.105
	c6.602-1.038,13.254-1.618,19.914-1.743c0.906-0.017,1.811-0.047,2.717-0.047c0.906,0,1.811,0.03,2.717,0.047
	c6.66,0.124,13.311,0.705,19.914,1.743C297.523,177.217,316.001,183.905,332.996,194.352z M262.365,152.71
	c-2.118-0.081-4.24-0.13-6.365-0.13s-4.247,0.049-6.365,0.13c-0.803-3.242-1.674-6.299-2.601-9.179
	c2.92,0.479,5.913,0.74,8.966,0.74c3.053,0,6.046-0.26,8.966-0.74C264.039,146.411,263.168,149.468,262.365,152.71z M357.066,88.837
	c0.345,0,0.692-0.001,1.036-0.003l24.536-0.068v14.249h-73.235c1.163-4.453,1.786-9.122,1.786-13.935c0-1.978-0.11-3.93-0.313-5.855
	C326,86.93,341.572,88.838,357.066,88.837z"/>
<path d="M251.902,194.081c-5.468,0.721-9.311,5.731-8.601,11.201c0.004,0.029,0.012,0.057,0.016,0.086
	c0.753,5.423,5.74,9.243,11.18,8.543c0.455-0.058,45.653-5.501,72.696,20.427c1.938,1.858,4.431,2.782,6.92,2.782
	c2.63,0,5.256-1.031,7.22-3.08c3.822-3.986,3.688-10.316-0.298-14.139c-19.514-18.709-45.192-24.55-63.987-26.073
	C263.041,192.694,252.856,193.956,251.902,194.081z"/>
<path d="M223.67,205.41c-0.25-0.61-0.561-1.19-0.92-1.73c-0.37-0.55-0.78-1.06-1.25-1.52c-0.46-0.46-0.97-0.88-1.521-1.24
	c-0.54-0.36-1.12-0.67-1.72-0.92c-0.61-0.25-1.24-0.44-1.87-0.57c-1.29-0.26-2.62-0.26-3.91,0c-0.64,0.13-1.27,0.32-1.87,0.57
	c-0.6,0.25-1.18,0.56-1.729,0.92c-0.54,0.36-1.061,0.78-1.521,1.24s-0.88,0.97-1.239,1.52c-0.36,0.54-0.67,1.12-0.92,1.73
	c-0.25,0.6-0.44,1.23-0.57,1.87s-0.2,1.3-0.2,1.95c0,2.64,1.07,5.21,2.93,7.07c0.46,0.46,0.98,0.88,1.521,1.25
	c0.55,0.36,1.13,0.67,1.729,0.92c0.601,0.25,1.23,0.44,1.87,0.57c0.641,0.13,1.301,0.19,1.95,0.19c0.66,0,1.311-0.06,1.96-0.19
	c0.63-0.13,1.26-0.32,1.87-0.57c0.6-0.25,1.18-0.56,1.72-0.92c0.551-0.37,1.061-0.79,1.521-1.25c0.47-0.46,0.88-0.97,1.25-1.52
	c0.359-0.54,0.67-1.12,0.92-1.72c0.25-0.61,0.439-1.24,0.57-1.87c0.13-0.65,0.189-1.31,0.189-1.96s-0.06-1.31-0.189-1.95
	C224.109,206.64,223.92,206.01,223.67,205.41z"/>
<path d="M266.094,275.683l-10.147,6.774l-9.999-6.746c-4.577-3.088-10.793-1.882-13.882,2.696
	c-3.09,4.578-1.883,10.793,2.696,13.883l15.562,10.5c1.689,1.14,3.641,1.71,5.593,1.71c1.936,0,3.871-0.561,5.552-1.683l15.729-10.5
	c4.594-3.066,5.832-9.276,2.766-13.869C276.896,273.854,270.685,272.618,266.094,275.683z"/>
<g>
</g>
<g>
</g>
<g>
</g>
<g>
</g>
<g>
</g>
<g>
</g>
<g>
</g>
<g>
</g>
<g>
</g>
<g>
</g>
<g>
</g>
<g>
</g>
<g>
</g>
<g>
</g>
<g>
</g>
</svg>
